…
```
## Joining, by = "word"
```

**Find the most common words in the book?**


```r
species_count <- species_tidy %>% count(word) %>% arrange(desc(n))
species_count
```

```
## # A tibble: 6,438 x 2
##    word          n
##    <chr>     <int>
##  1 species    1489
##  2 forms       397
##  3 varieties   396
##  4 selection   383
##  5 natural     361
##  6 life        298
##  7 plants      297
##  8 animals     280
##  9 distinct    255
## 10 nature      251
## # ... with 6,428 more rows
```
…
